# Blender v3.0.0 OBJ File: ''
# www.blender.org
mtllib manta.mtl
o MantaRay
v -1.787623 -0.168419 0.017614
v -0.765043 0.230169 0.195405
v -0.663054 0.176345 -0.274796
v -1.846395 -0.186908 -0.386821
v -3.717838 -1.440622 -1.019398
v -3.083027 -0.803130 -0.682468
v -3.014427 -0.841499 -0.796003
v -0.000309 0.268758 0.247696
v -0.756165 0.240961 0.762596
v 0.000249 0.255974 0.791846
v -2.557186 -0.437747 -0.096276
v -3.247214 -0.770025 -0.244699
v -3.286697 -0.762894 0.032078
v -2.607749 -0.446616 0.321590
v -3.201565 -0.747456 -0.467120
v -3.790849 -1.499138 -0.950119
v -3.147095 -0.854746 0.139063
v -3.185048 -0.974404 0.054961
v -2.571678 -0.697515 0.717830
v -2.605369 -0.614582 0.752734
v -0.644740 0.365257 2.393495
v -0.873938 0.342701 2.467955
v -0.867052 0.265540 2.969671
v -0.638645 0.286961 2.970953
v -0.573802 0.188300 1.229243
v 0.000000 0.269457 0.975247
v -1.532558 -0.238728 1.428625
v -1.545247 -0.147852 1.425731
v -0.657193 0.117123 -0.663593
v -1.878348 -0.286543 -0.783216
v -0.242031 -0.129218 -2.633533
v -0.185339 -0.216034 -2.662554
v -0.288271 -0.208160 -2.926356
v -0.344963 -0.117566 -2.898444
v -0.672407 0.053749 -1.045899
v -1.495907 -0.188260 -1.070784
v -2.417816 -0.573676 -0.807197
v -1.869450 -0.378665 -0.891763
v -1.838059 -0.474400 -0.887275
v -2.386126 -0.653654 -0.803616
v -0.827219 -0.307570 -1.876611
v -1.134004 -0.263202 -1.401383
v -1.117552 -0.163078 -1.307635
v -0.809364 -0.211592 -1.789425
v -2.461607 -0.503073 -0.698712
v -2.531857 -0.421563 -0.400145
v -0.544985 0.281922 1.294360
v 0.000000 0.368061 1.034437
v -2.644983 -0.459936 0.643715
v -1.511604 0.026481 1.309986
v -1.094864 0.122616 1.394009
v -1.603563 -0.069082 0.646485
v -0.946329 -0.139461 2.507496
v -0.961201 -0.001423 2.518987
v -0.678976 -0.063311 -1.400590
v -1.563125 -0.295722 -1.138180
v -1.548464 -0.393305 -1.131832
v -1.111525 -0.360883 -1.394486
v -0.058470 0.018839 -1.863338
v 0.000001 0.029727 -1.883479
v 0.000001 -0.012258 -2.445783
v -0.631579 -0.162031 -2.482613
v -0.207446 -0.312400 -2.659299
v -0.112723 -0.276498 -2.636839
v -0.104265 -0.057189 -2.620421
v -1.459134 0.150194 1.416348
v -0.826341 -0.408299 -1.871382
v -3.744215 -1.554733 -0.947930
v -0.911301 -0.020518 2.956667
v -3.671203 -1.496218 -1.017210
v -2.969142 -0.897862 -0.793762
v -0.612765 -0.253457 -2.494662
v -0.633516 -0.010037 2.948033
v -0.636666 0.163795 3.329157
v -0.632833 -0.020573 3.313024
v -0.000001 0.409473 2.188357
v -0.331883 0.390902 2.227010
v -0.340669 0.335746 2.254371
v -0.000001 0.350702 2.230709
v -1.074968 0.223459 1.456598
v -0.898980 -0.144601 2.925209
v -0.875366 -0.110339 3.297632
v -0.888885 -0.026832 3.315639
v -0.634608 0.015596 2.601031
v -0.640914 -0.130518 2.610299
v -0.640474 -0.141743 2.925267
v -0.640290 -0.108750 3.297662
v -0.632734 -0.020692 3.397072
v -0.640325 -0.065257 3.389298
v -0.865068 0.149699 3.328221
v -0.875416 -0.024158 3.393362
v -0.864857 0.057585 3.405060
v -0.875375 -0.066610 3.389289
v -0.636312 0.065276 3.405539
v 0.000001 -0.323704 -2.640373
v 0.000001 -0.006252 -2.616607
v -0.086697 -0.029733 -3.128199
v 0.000001 0.016397 -3.124745
v 0.000001 0.038798 -3.675472
v -0.067680 -0.002151 -3.678235
v -0.094357 -0.228346 -3.143068
v -0.144953 -0.139794 -3.136439
v -0.119366 -0.099848 -3.684828
v -0.074476 -0.178455 -3.690132
v 0.000001 -0.271093 -3.146265
v 0.000001 -0.216404 -3.692693
v -0.095626 0.071564 -6.037086
v -0.061458 0.136066 -6.031627
v -0.059424 0.180233 -6.653269
v -0.088741 0.124888 -6.657954
v 0.000002 -0.005389 -6.043599
v -0.065950 0.019666 -6.041478
v -0.063279 0.080359 -6.661722
v 0.000002 0.058861 -6.663542
v 0.000002 0.163101 -6.029339
v 0.000002 0.203430 -6.651306
v 0.000003 0.268024 -8.306490
v -0.577842 -0.099828 2.575776
v -0.573015 0.019542 2.568207
v -0.581068 0.314102 2.398628
v 0.001065 0.217940 -0.291067
v 0.000000 0.156129 -0.726064
v 0.000001 0.107945 -1.068635
v 0.000001 0.040614 -1.490283
v -0.055506 0.034244 -1.474812
v -0.067647 0.100378 -1.898428
v -0.064682 0.127212 -1.547903
v -0.070424 0.365003 -1.746583
v -0.073389 0.220332 -1.905572
v 0.000001 0.123497 -1.561829
v 0.000001 0.100823 -1.919327
v 0.000001 0.220172 -1.927073
v 0.000001 0.361793 -1.760792
v -0.080037 0.400250 -1.946533
v 0.000001 0.400703 -1.966985
v -0.072525 -0.132414 -4.266806
v -0.113747 -0.060228 -4.261934
v -0.108129 -0.020608 -4.839042
v -0.070574 -0.086373 -4.843480
v -0.066284 0.029489 -4.255880
v 0.000002 0.067092 -4.253343
v 0.000002 0.095386 -4.831214
v -0.064888 0.061128 -4.833526
v 0.000002 -0.167263 -4.269157
v 0.000002 -0.118122 -4.845622
v -0.102511 0.019012 -5.416148
v -0.068622 -0.040331 -5.420153
v 0.000002 0.123681 -5.409085
v -0.063492 0.092767 -5.411171
v 0.000002 -0.068980 -5.422086
v -0.623561 -0.350107 -2.495159
v -0.539160 -0.232789 -2.751831
v -0.549956 -0.328501 -2.753284
v -0.310378 -0.299332 -2.923535
v -0.557974 -0.141876 -2.739127
v 1.738177 -0.113526 -0.031656
v 1.823761 -0.130335 -0.436607
v 0.659772 0.178483 -0.271620
v 0.731080 0.197712 0.192925
v 3.484226 -1.659804 -1.067823
v 2.865438 -0.975782 -0.833608
v 2.937418 -0.947852 -0.722054
v 0.728049 0.215885 0.759428
v 2.554217 -0.415308 -0.121941
v 2.619604 -0.405750 0.296432
v 3.168566 -0.978562 -0.013192
v 3.114377 -0.938982 -0.288122
v 3.062130 -0.911459 -0.510014
v 3.551538 -1.725932 -0.999628
v 3.013601 -1.018058 0.098221
v 2.613172 -0.562129 0.730213
v 2.574410 -0.645657 0.697022
v 3.008365 -1.147490 0.012605
v 0.641247 0.363683 2.393184
v 0.636729 0.286020 2.970887
v 0.865334 0.265478 2.969617
v 0.870742 0.342745 2.467491
v 0.564792 0.178136 1.228510
v 1.550222 -0.129306 1.418579
v 1.540544 -0.220375 1.422138
v 1.834850 -0.251572 -0.833202
v 0.655238 0.125100 -0.662225
v 0.242033 -0.129985 -2.633487
v 0.344965 -0.117993 -2.898423
v 0.288273 -0.208564 -2.926306
v 0.185341 -0.216389 -2.662499
v 1.488056 -0.162851 -1.076888
v 0.668403 0.056384 -1.045573
v 2.380724 -0.579275 -0.829615
v 2.344528 -0.657564 -0.824255
v 1.785194 -0.437959 -0.933563
v 1.821490 -0.343665 -0.939955
v 0.826458 -0.309579 -1.876723
v 0.807823 -0.210663 -1.789383
v 1.112965 -0.147479 -1.309264
v 1.128401 -0.248855 -1.402559
v 2.430615 -0.507605 -0.722972
v 2.514421 -0.416276 -0.426625
v 0.537557 0.275305 1.293728
v 1.588339 -0.029055 0.633896
v 1.085028 0.130664 1.391276
v 1.508726 0.039303 1.301710
v 2.659359 -0.416158 0.617848
v 0.960670 -0.000990 2.518627
v 0.946957 -0.139176 2.507226
v 0.676499 -0.060414 -1.400390
v 1.551311 -0.271735 -1.144359
v 1.535153 -0.368584 -1.136915
v 1.105327 -0.346172 -1.395134
v 0.631581 -0.162468 -2.482578
v 0.058472 0.018356 -1.863706
v 0.207448 -0.312784 -2.659205
v 0.112725 -0.276498 -2.636839
v 0.104267 -0.057189 -2.620421
v 1.454907 0.164757 1.409857
v 0.825922 -0.410726 -1.871520
v 3.498948 -1.775857 -0.996130
v 0.910682 -0.020535 2.956594
v 3.431636 -1.709729 -1.064327
v 2.814432 -1.026645 -0.830036
v 0.612767 -0.253856 -2.494586
v 0.632793 -0.011135 2.947966
v 0.632256 -0.021407 3.312988
v 0.635645 0.163027 3.329146
v 0.339046 0.334025 2.254334
v 0.330387 0.389511 2.227004
v 1.066151 0.228073 1.454127
v 0.888628 -0.027060 3.315632
v 0.875182 -0.110601 3.297611
v 0.898928 -0.144732 2.925122
v 0.633678 0.014159 2.600923
v 0.640698 -0.132105 2.610214
v 0.640244 -0.142874 2.925199
v 0.639944 -0.109565 3.297618
v 0.639944 -0.065983 3.389266
v 0.632256 -0.021432 3.397044
v 0.864504 0.149466 3.328234
v 0.864504 0.057327 3.405064
v 0.875182 -0.024414 3.393357
v 0.875182 -0.066872 3.389278
v 0.635644 0.064552 3.405522
v 0.086699 -0.029733 -3.128199
v 0.067683 -0.002151 -3.678235
v 0.094359 -0.228346 -3.143068
v 0.074479 -0.178455 -3.690132
v 0.119369 -0.099848 -3.684828
v 0.144955 -0.139794 -3.136439
v 0.095630 0.071564 -6.037086
v 0.088746 0.124888 -6.657954
v 0.059428 0.180233 -6.653269
v 0.061462 0.136066 -6.031627
v 0.063283 0.080359 -6.661722
v 0.065955 0.019666 -6.041478
v 0.572028 0.017741 2.568107
v 0.577465 -0.101512 2.575704
v 0.577899 0.312106 2.398378
v 0.055507 0.034678 -1.475160
v 0.067648 0.100084 -1.898730
v 0.073391 0.220207 -1.905760
v 0.070426 0.364994 -1.746635
v 0.064683 0.127289 -1.548079
v 0.080039 0.400214 -1.946600
v 0.072528 -0.132414 -4.266806
v 0.070577 -0.086373 -4.843480
v 0.108133 -0.020608 -4.839042
v 0.113751 -0.060228 -4.261934
v 0.066287 0.029489 -4.255880
v 0.064891 0.061128 -4.833526
v 0.068626 -0.040331 -5.420153
v 0.102515 0.019012 -5.416148
v 0.063496 0.092767 -5.411171
v 0.623563 -0.350436 -2.495057
v 0.549958 -0.328891 -2.753191
v 0.539162 -0.233210 -2.751768
v 0.310380 -0.299722 -2.923459
v 0.557976 -0.142323 -2.739099
v -1.742714 -0.649261 0.026272
v -1.756045 -0.571039 -0.397239
v -0.742738 -0.495476 -0.288387
v -0.681362 -0.510153 0.252023
v -3.001428 -0.977012 -0.487407
v -3.058225 -1.009151 -0.246691
v -2.426754 -0.806825 -0.081670
v -2.480284 -0.827811 0.372231
v -0.630226 -0.558351 0.849700
v -1.519525 -0.559574 0.723497
v -0.514722 -0.516793 1.609047
v -1.056951 -0.377827 1.539677
v 0.000312 -0.623541 -0.709426
v -0.821363 -0.496739 -0.749040
v -0.824031 -0.457843 -1.172985
v 0.000001 -0.569377 -0.997416
v 0.000811 -0.565730 -0.275443
v -2.405252 -0.739968 -0.411757
v -0.340551 -0.218820 2.443045
v -0.657652 -0.415823 -1.483818
v 0.000001 -0.420075 -1.581520
v 0.000001 -0.337404 -2.571712
v 0.000001 -0.371416 -2.294784
v -0.346380 -0.161157 2.431071
v 0.001077 -0.624652 0.306411
v 0.000632 -0.693034 0.927803
v 0.000000 -0.648037 1.654384
v -0.000001 -0.223779 2.395200
v -0.539029 0.164068 1.965130
v -0.274167 0.176501 1.964314
v 0.000171 0.181848 1.962808
v -0.000001 -0.166296 2.400515
v 0.000000 -0.056070 1.975677
v -0.279898 -0.051618 1.976069
v -0.533426 0.004441 1.973300
v -0.537364 -0.050183 1.976082
v -0.460638 -0.120422 1.389928
v -0.457512 -0.065561 1.386601
v -0.197629 0.063484 1.377335
v 0.000497 0.068725 1.376785
v -0.203029 -0.124110 1.389892
v -0.464144 0.054610 1.379133
v -0.202548 -0.066250 1.386004
v 0.000143 -0.133502 1.389725
v 0.000000 -0.072292 1.385417
v 1.700387 -0.554942 -0.013266
v 0.696511 -0.543411 0.257125
v 0.747633 -0.516336 -0.284056
v 1.706400 -0.497291 -0.439524
v 2.893456 -1.150049 -0.284807
v 2.835883 -1.115381 -0.524736
v 2.406904 -0.774838 -0.098741
v 2.465476 -0.783123 0.354413
v 1.538648 -0.513008 0.719014
v 0.637129 -0.575949 0.851724
v 1.069458 -0.366024 1.540039
v 0.519074 -0.524066 1.609734
v 0.818420 -0.453757 -1.172143
v 0.818040 -0.494436 -0.747055
v 2.371776 -0.731256 -0.430867
v 0.340518 -0.219279 2.443015
v 0.655675 -0.422708 -1.483671
v 0.346176 -0.162417 2.431019
v 0.273028 0.173996 1.964402
v 0.536713 0.160698 1.964942
v 0.279243 -0.054868 1.976187
v 0.532201 0.000566 1.973233
v 0.455524 -0.073325 1.386809
v 0.459274 -0.128117 1.390168
v 0.536603 -0.054005 1.976059
v 0.196950 0.060753 1.377991
v 0.202175 -0.128397 1.390182
v 0.461151 0.047601 1.379281
v 0.201618 -0.069992 1.386301
v -1.114317 0.000938 2.602551
v -1.157463 -0.080414 2.738431
v 1.114315 0.000938 2.602553
v 1.157462 -0.080414 2.738433
vt 0.348196 0.555575
vt 0.435507 0.570755
vt 0.444215 0.530608
vt 0.343178 0.521043
vt 0.183390 0.467032
vt 0.237592 0.495800
vt 0.243449 0.486106
vt 0.500801 0.575220
vt 0.436265 0.619183
vt 0.500849 0.621680
vt 0.282489 0.545850
vt 0.223573 0.533178
vt 0.220202 0.556810
vt 0.278172 0.581529
vt 0.227471 0.514187
vt 0.388857 0.472947
vt 0.451110 0.533178
vt 0.453037 0.514187
vt 0.393853 0.467032
vt 0.232122 0.443876
vt 0.228881 0.433660
vt 0.281252 0.457301
vt 0.278375 0.464382
vt 0.445778 0.758433
vt 0.426209 0.764790
vt 0.426797 0.807628
vt 0.446299 0.807738
vt 0.451835 0.659026
vt 0.500828 0.637340
vt 0.369974 0.496473
vt 0.368891 0.504233
vt 0.443876 0.565944
vt 0.451719 0.556810
vt 0.444715 0.497412
vt 0.340450 0.487198
vt 0.505824 0.329214
vt 0.498411 0.326736
vt 0.499083 0.304212
vt 0.506818 0.306595
vt 0.443416 0.464769
vt 0.373104 0.462645
vt 0.294389 0.467875
vt 0.341210 0.484525
vt 0.343890 0.476351
vt 0.297095 0.461046
vt 0.490595 0.393841
vt 0.494384 0.434417
vt 0.502932 0.442422
vt 0.498790 0.401286
vt 0.290650 0.494413
vt 0.284652 0.519905
vt 0.500828 0.539863
vt 0.451835 0.532934
vt 0.454296 0.540928
vt 0.500828 0.548282
vt 0.274993 0.609033
vt 0.371764 0.665920
vt 0.407346 0.673094
vt 0.363912 0.609269
vt 0.504233 0.675803
vt 0.496473 0.676050
vt 0.504949 0.768167
vt 0.516735 0.769148
vt 0.442855 0.434485
vt 0.405409 0.442422
vt 0.367365 0.491607
vt 0.368616 0.483275
vt 0.404004 0.494384
vt 0.405923 0.486043
vt 0.431722 0.401286
vt 0.495836 0.394975
vt 0.500828 0.393255
vt 0.500828 0.345244
vt 0.446902 0.342100
vt 0.404004 0.434417
vt 0.367365 0.456890
vt 0.483116 0.490183
vt 0.485003 0.498411
vt 0.491203 0.493248
vt 0.480163 0.505824
vt 0.491925 0.511974
vt 0.341210 0.477930
vt 0.519117 0.665920
vt 0.529680 0.675002
vt 0.481995 0.394288
vt 0.486043 0.435006
vt 0.294389 0.485150
vt 0.384110 0.473134
vt 0.433660 0.558763
vt 0.546117 0.764790
vt 0.515105 0.806518
vt 0.539529 0.807628
vt 0.464382 0.618341
vt 0.477586 0.609033
vt 0.187372 0.389106
vt 0.183390 0.393853
vt 0.243449 0.445007
vt 0.247316 0.440195
vt 0.181138 0.384110
vt 0.177156 0.388857
vt 0.495216 0.341071
vt 0.503022 0.342100
vt 0.515999 0.805781
vt 0.541358 0.807738
vt 0.530842 0.838322
vt 0.515100 0.836944
vt 0.500828 0.551818
vt 0.472491 0.550233
vt 0.471741 0.545523
vt 0.500828 0.546800
vt 0.409045 0.678438
vt 0.504510 0.803832
vt 0.507436 0.835630
vt 0.514566 0.837168
vt 0.518188 0.776153
vt 0.548043 0.758433
vt 0.505713 0.776944
vt 0.504754 0.803837
vt 0.507571 0.835633
vt 0.515090 0.844121
vt 0.511285 0.843457
vt 0.529638 0.838242
vt 0.514794 0.843804
vt 0.521773 0.844803
vt 0.426966 0.838242
vt 0.446468 0.838322
vt 0.426083 0.514794
vt 0.426086 0.511169
vt 0.446155 0.511285
vt 0.446804 0.515090
vt 0.426984 0.521773
vt 0.446498 0.522430
vt 0.511169 0.843456
vt 0.522430 0.844844
vt 0.446468 0.530842
vt 0.426966 0.529638
vt 0.426087 0.835630
vt 0.446158 0.835633
vt 0.446155 0.843457
vt 0.426086 0.843456
vt 0.500828 0.489218
vt 0.491925 0.330333
vt 0.480163 0.329214
vt 0.500828 0.330659
vt 0.493425 0.286978
vt 0.500828 0.287273
vt 0.500828 0.240250
vt 0.495049 0.240015
vt 0.497360 0.285708
vt 0.504921 0.286274
vt 0.508331 0.239452
vt 0.501620 0.238999
vt 0.514318 0.286978
vt 0.516673 0.240015
vt 0.500828 0.285435
vt 0.492771 0.285708
vt 0.494469 0.238999
vt 0.500828 0.238780
vt 0.522967 0.038610
vt 0.528474 0.039077
vt 0.532245 -0.014001
vt 0.527520 -0.014401
vt 0.500828 0.038054
vt 0.495197 0.038235
vt 0.495425 -0.014722
vt 0.500828 -0.014878
vt 0.495580 0.039077
vt 0.500828 0.039272
vt 0.500828 -0.013833
vt 0.495754 -0.014001
vt 0.518536 0.038235
vt 0.523718 -0.014722
vt 0.539741 -0.155157
vt 0.500828 -0.155157
vt 0.446644 0.518188
vt 0.446105 0.505713
vt 0.451490 0.508333
vt 0.451902 0.518525
vt 0.445778 0.548043
vt 0.451215 0.543675
vt 0.500919 0.529219
vt 0.472491 0.744218
vt 0.454296 0.664586
vt 0.500828 0.492078
vt 0.500828 0.462828
vt 0.500828 0.426827
vt 0.496089 0.428148
vt 0.500828 0.642393
vt 0.500828 0.740918
vt 0.376244 0.675002
vt 0.409045 0.535936
vt 0.407346 0.527326
vt 0.525427 0.391979
vt 0.527718 0.421907
vt 0.548021 0.404943
vt 0.535669 0.391369
vt 0.518465 0.394975
vt 0.519780 0.428148
vt 0.496089 0.519780
vt 0.500828 0.520324
vt 0.500828 0.527401
vt 0.495305 0.527718
vt 0.500828 0.519395
vt 0.495836 0.518465
vt 0.495052 0.525427
vt 0.500828 0.525465
vt 0.494562 0.535669
vt 0.500828 0.535655
vt 0.500828 0.547747
vt 0.494815 0.548021
vt 0.551031 0.387871
vt 0.493994 0.551031
vt 0.500828 0.551069
vt 0.494815 0.404943
vt 0.500828 0.403730
vt 0.500828 0.386125
vt 0.493994 0.387871
vt 0.500828 0.328630
vt 0.491203 0.328931
vt 0.511974 0.330333
vt 0.493248 0.328931
vt 0.505551 0.189761
vt 0.511714 0.190177
vt 0.515097 0.140902
vt 0.509482 0.140523
vt 0.495168 0.190694
vt 0.500828 0.190911
vt 0.500828 0.141571
vt 0.495288 0.141373
vt 0.500828 0.189560
vt 0.494635 0.189761
vt 0.494802 0.140523
vt 0.500828 0.140340
vt 0.519374 0.190694
vt 0.522076 0.141373
vt 0.518480 0.091628
vt 0.513413 0.091286
vt 0.500828 0.092231
vt 0.495407 0.092052
vt 0.494969 0.091286
vt 0.500828 0.091121
vt 0.524777 0.092052
vt 0.371764 0.519117
vt 0.376244 0.529680
vt 0.274993 0.477586
vt 0.486964 0.341028
vt 0.496980 0.319113
vt 0.488808 0.318989
vt 0.453871 0.488808
vt 0.454793 0.496980
vt 0.476215 0.499083
vt 0.474327 0.491299
vt 0.453187 0.504743
vt 0.471374 0.506818
vt 0.504743 0.320198
vt 0.471374 0.306595
vt 0.453187 0.320198
vt 0.490183 0.327014
vt 0.491299 0.304453
vt 0.649237 0.551368
vt 0.656545 0.516792
vt 0.557161 0.530879
vt 0.563249 0.570543
vt 0.798319 0.462898
vt 0.745486 0.482895
vt 0.751631 0.492420
vt 0.562990 0.618912
vt 0.718913 0.543659
vt 0.724496 0.579381
vt 0.771367 0.552944
vt 0.766741 0.529470
vt 0.762280 0.510525
vt 0.369492 0.468720
vt 0.375139 0.462898
vt 0.439034 0.510525
vt 0.436684 0.529470
vt 0.758136 0.429932
vt 0.723946 0.468861
vt 0.720637 0.461729
vt 0.757689 0.418881
vt 0.555579 0.758406
vt 0.555193 0.807732
vt 0.574712 0.807624
vt 0.575174 0.764751
vt 0.549051 0.658964
vt 0.633189 0.505816
vt 0.632363 0.498040
vt 0.804066 0.369492
vt 0.771367 0.433305
vt 0.657492 0.482930
vt 0.556774 0.497528
vt 0.505758 0.329218
vt 0.506782 0.306597
vt 0.499049 0.304216
vt 0.498381 0.326740
vt 0.627881 0.462124
vt 0.557898 0.464797
vt 0.704100 0.467397
vt 0.701009 0.460712
vt 0.653252 0.479463
vt 0.656351 0.487514
vt 0.490424 0.393832
vt 0.498870 0.401289
vt 0.504264 0.442283
vt 0.495609 0.434317
vt 0.708359 0.492342
vt 0.715515 0.517645
vt 0.433305 0.552944
vt 0.546726 0.540363
vt 0.549051 0.532066
vt 0.636444 0.608194
vt 0.593470 0.672861
vt 0.629646 0.665214
vt 0.727890 0.606824
vt 0.505816 0.675192
vt 0.516772 0.769117
vt 0.504973 0.768143
vt 0.498040 0.675496
vt 0.595855 0.442283
vt 0.558589 0.434502
vt 0.633282 0.493655
vt 0.631903 0.485386
vt 0.597173 0.495609
vt 0.595203 0.487300
vt 0.569802 0.401289
vt 0.554754 0.342103
vt 0.505820 0.394943
vt 0.633282 0.456363
vt 0.597173 0.434317
vt 0.518540 0.490150
vt 0.510453 0.493248
vt 0.516653 0.498381
vt 0.509730 0.511974
vt 0.521493 0.505758
vt 0.656351 0.473815
vt 0.520212 0.665214
vt 0.530924 0.674448
vt 0.481788 0.394276
vt 0.487300 0.434951
vt 0.704100 0.483236
vt 0.365230 0.469019
vt 0.429932 0.562457
vt 0.418881 0.555147
vt 0.546121 0.764751
vt 0.539524 0.807624
vt 0.515103 0.806512
vt 0.481324 0.606824
vt 0.468861 0.616418
vt 0.793829 0.370876
vt 0.741131 0.429199
vt 0.745486 0.433542
vt 0.798319 0.375139
vt 0.799576 0.365230
vt 0.495182 0.341077
vt 0.502985 0.342103
vt 0.515906 0.805775
vt 0.515029 0.836941
vt 0.530776 0.838321
vt 0.541278 0.807732
vt 0.529776 0.545376
vt 0.529037 0.550114
vt 0.591858 0.678227
vt 0.514546 0.837167
vt 0.507413 0.835628
vt 0.504499 0.803824
vt 0.518065 0.776144
vt 0.547909 0.758406
vt 0.505577 0.776937
vt 0.504658 0.803831
vt 0.507502 0.835629
vt 0.511223 0.843454
vt 0.515027 0.844118
vt 0.529618 0.838243
vt 0.521751 0.844803
vt 0.514772 0.843803
vt 0.555101 0.838321
vt 0.574641 0.838243
vt 0.575553 0.514772
vt 0.554811 0.515027
vt 0.555468 0.511223
vt 0.575553 0.511147
vt 0.574641 0.521751
vt 0.555101 0.522368
vt 0.511147 0.843455
vt 0.522368 0.844842
vt 0.555101 0.530776
vt 0.574641 0.529618
vt 0.575553 0.835628
vt 0.575553 0.843455
vt 0.555468 0.843454
vt 0.555468 0.835629
vt 0.509730 0.330333
vt 0.521493 0.329218
vt 0.508230 0.286978
vt 0.506607 0.240015
vt 0.497360 0.285708
vt 0.501620 0.238999
vt 0.508331 0.239452
vt 0.504921 0.286274
vt 0.516673 0.240015
vt 0.514318 0.286978
vt 0.507187 0.238999
vt 0.508884 0.285708
vt 0.522967 0.038610
vt 0.527520 -0.014401
vt 0.532245 -0.014001
vt 0.528474 0.039077
vt 0.506231 -0.014722
vt 0.506459 0.038235
vt 0.506076 0.039077
vt 0.505902 -0.014001
vt 0.518536 0.038235
vt 0.523718 -0.014722
vt 0.554933 0.518065
vt 0.549669 0.518371
vt 0.550133 0.508189
vt 0.555532 0.505577
vt 0.555579 0.547909
vt 0.550170 0.543505
vt 0.529037 0.744218
vt 0.546726 0.664532
vt 0.505567 0.428118
vt 0.625051 0.674448
vt 0.591858 0.536330
vt 0.593470 0.528013
vt 0.525402 0.391953
vt 0.535658 0.391353
vt 0.548020 0.404939
vt 0.527725 0.421892
vt 0.518424 0.394943
vt 0.519817 0.428118
vt 0.505567 0.519817
vt 0.506351 0.527725
vt 0.506604 0.525402
vt 0.505820 0.518424
vt 0.507094 0.535658
vt 0.506841 0.548020
vt 0.551028 0.387866
vt 0.507662 0.551028
vt 0.506841 0.404939
vt 0.507662 0.387866
vt 0.510453 0.328931
vt 0.511974 0.330333
vt 0.493248 0.328931
vt 0.505551 0.189761
vt 0.509482 0.140523
vt 0.515097 0.140902
vt 0.511714 0.190177
vt 0.506488 0.190694
vt 0.506368 0.141373
vt 0.506854 0.140523
vt 0.507020 0.189761
vt 0.522076 0.141373
vt 0.519374 0.190694
vt 0.513413 0.091286
vt 0.518480 0.091628
vt 0.506249 0.092052
vt 0.506687 0.091286
vt 0.524777 0.092052
vt 0.625051 0.530924
vt 0.629646 0.520212
vt 0.727890 0.481324
vt 0.486935 0.341037
vt 0.488775 0.318997
vt 0.496944 0.319118
vt 0.547785 0.488775
vt 0.527329 0.491266
vt 0.525441 0.499049
vt 0.546863 0.496944
vt 0.530282 0.506782
vt 0.548469 0.504705
vt 0.504705 0.320200
vt 0.548469 0.320200
vt 0.530282 0.306597
vt 0.491266 0.304459
vt 0.490150 0.327022
vt 0.352031 0.556314
vt 0.350893 0.520154
vt 0.437411 0.529448
vt 0.442652 0.575589
vt 0.181138 0.473134
vt 0.187372 0.467219
vt 0.244559 0.512455
vt 0.239710 0.533008
vt 0.293626 0.547098
vt 0.289055 0.585853
vt 0.228881 0.558763
vt 0.447018 0.626620
vt 0.371087 0.615845
vt 0.456880 0.691455
vt 0.410583 0.685532
vt 0.500854 0.493498
vt 0.430698 0.490116
vt 0.430470 0.453919
vt 0.500828 0.468909
vt 0.500897 0.530553
vt 0.295462 0.518914
vt 0.247316 0.486298
vt 0.297095 0.485456
vt 0.471751 0.762664
vt 0.446105 0.776944
vt 0.369974 0.676050
vt 0.420028 0.768167
vt 0.444676 0.427379
vt 0.500828 0.419037
vt 0.500828 0.334492
vt 0.447587 0.341028
vt 0.483116 0.327014
vt 0.430273 0.394288
vt 0.500828 0.358137
vt 0.471751 0.498173
vt 0.471253 0.503097
vt 0.446143 0.803837
vt 0.424071 0.803832
vt 0.343890 0.478313
vt 0.368616 0.457432
vt 0.405923 0.435006
vt 0.500920 0.580233
vt 0.500882 0.633289
vt 0.500828 0.695326
vt 0.500828 0.758578
vt 0.471741 0.746554
vt 0.451215 0.758871
vt 0.454804 0.721858
vt 0.477419 0.721788
vt 0.500828 0.744534
vt 0.500842 0.721660
vt 0.471253 0.761641
vt 0.500828 0.759032
vt 0.500828 0.722759
vt 0.476929 0.722792
vt 0.543675 0.758871
vt 0.518525 0.773350
vt 0.517236 0.722556
vt 0.530865 0.721858
vt 0.500828 0.497750
vt 0.500828 0.502658
vt 0.512572 0.722793
vt 0.506575 0.672746
vt 0.511259 0.672462
vt 0.483954 0.671671
vt 0.500870 0.671624
vt 0.454946 0.722793
vt 0.483493 0.672743
vt 0.461497 0.672746
vt 0.461198 0.671824
vt 0.451490 0.773996
vt 0.508333 0.773996
vt 0.281252 0.615361
vt 0.461764 0.511259
vt 0.461497 0.506575
vt 0.483493 0.506260
vt 0.483534 0.511200
vt 0.461198 0.521519
vt 0.483954 0.522277
vt 0.500840 0.505458
vt 0.500828 0.510684
vt 0.500870 0.522724
vt 0.521519 0.671824
vt 0.500840 0.672729
vt 0.453871 0.318989
vt 0.474327 0.304453
vt 0.646011 0.552938
vt 0.560298 0.576025
vt 0.564662 0.529817
vt 0.646524 0.516543
vt 0.799576 0.469019
vt 0.747878 0.529753
vt 0.742962 0.509268
vt 0.793829 0.463196
vt 0.706335 0.545640
vt 0.757689 0.555147
vt 0.711336 0.584331
vt 0.632201 0.615462
vt 0.555227 0.626793
vt 0.592141 0.685563
vt 0.545148 0.691514
vt 0.570706 0.453990
vt 0.570674 0.490285
vt 0.703336 0.517282
vt 0.701009 0.483694
vt 0.741131 0.483200
vt 0.421623 0.509268
vt 0.429199 0.483200
vt 0.370876 0.463196
vt 0.555532 0.776937
vt 0.529902 0.762661
vt 0.632363 0.675496
vt 0.581681 0.768143
vt 0.556811 0.427391
vt 0.518540 0.327022
vt 0.554069 0.341037
vt 0.571347 0.394276
vt 0.530385 0.502989
vt 0.529902 0.498134
vt 0.577580 0.803824
vt 0.555493 0.803831
vt 0.631903 0.456998
vt 0.653252 0.474361
vt 0.595203 0.434951
vt 0.529776 0.746551
vt 0.524140 0.721796
vt 0.546654 0.721842
vt 0.550170 0.758850
vt 0.530385 0.761637
vt 0.524670 0.722802
vt 0.543505 0.758850
vt 0.530577 0.721842
vt 0.516905 0.722550
vt 0.518371 0.773342
vt 0.510596 0.672480
vt 0.505918 0.672767
vt 0.512245 0.722791
vt 0.517644 0.671727
vt 0.546644 0.722791
vt 0.540042 0.672767
vt 0.518090 0.672768
vt 0.540202 0.671837
vt 0.550133 0.773990
vt 0.508189 0.773990
vt 0.720637 0.613584
vt 0.539721 0.510596
vt 0.518042 0.510880
vt 0.518090 0.505894
vt 0.540042 0.505918
vt 0.540202 0.520921
vt 0.517644 0.522044
vt 0.520921 0.671837
vt 0.527329 0.304459
vt 0.547785 0.318997
vn -0.3140 0.9448 -0.0936
vn -0.4529 0.7251 -0.5187
vn -0.0353 0.9994 0.0021
vn -0.4141 0.9088 -0.0514
vn -0.4941 0.7363 -0.4623
vn -0.7373 0.6646 -0.1213
vn -0.7418 0.6599 -0.1194
vn -0.7428 0.6588 -0.1190
vn -0.5942 -0.3981 0.6989
vn -0.0720 0.9871 0.1431
vn -0.0590 0.9953 0.0765
vn -0.4416 -0.2751 0.8540
vn -0.7035 -0.3463 0.6207
vn -0.2830 0.9419 -0.1812
vn 0.7668 0.5790 -0.2772
vn -0.2922 0.9499 -0.1107
vn -0.1213 -0.0890 -0.9886
vn -0.6687 0.5640 -0.4845
vn -0.3367 0.9065 -0.2548
vn -0.7355 0.6665 -0.1221
vn -0.3282 0.9445 0.0124
vn -0.4171 0.5368 -0.7334
vn -0.3214 0.9444 -0.0695
vn -0.8679 -0.1226 0.4814
vn -0.2641 0.9140 -0.3080
vn -0.5940 -0.1854 -0.7828
vn -0.5044 -0.1536 -0.8497
vn -0.2638 0.9639 -0.0366
vn -0.2668 0.9269 -0.2640
vn -0.4310 0.6553 -0.6204
vn 0.2629 -0.0927 -0.9604
vn -0.0568 0.2830 -0.9574
vn -0.5726 0.6299 -0.5248
vn -0.9495 0.2789 0.1440
vn -0.8475 -0.1312 -0.5143
vn -0.3490 0.7071 -0.6149
vn -0.7287 -0.3193 0.6059
vn -0.9748 0.2083 0.0803
vn -0.7316 0.0629 0.6788
vn 0.2010 0.1266 -0.9714
vn -0.4406 -0.4012 -0.8031
vn -0.9516 0.1400 -0.2736
vn 0.9998 0.0204 -0.0028
vn 0.9998 0.0188 -0.0004
vn 0.9998 0.0186 -0.0002
vn 0.0533 0.5182 0.8536
vn -0.1265 0.9878 -0.0905
vn -0.1282 0.9876 -0.0901
vn -0.1268 0.9877 -0.0912
vn -0.9880 -0.1391 0.0675
vn -0.9868 -0.1202 0.1088
vn 0.9997 0.0221 -0.0053
vn 0.9989 -0.0474 -0.0050
vn 0.9927 -0.1175 0.0287
vn -0.9812 0.1161 0.1540
vn -0.0751 0.9458 0.3158
vn -0.9881 0.1422 0.0578
vn 0.9978 -0.0656 0.0008
vn -0.0064 -0.1344 0.9909
vn -0.0060 -0.1191 0.9929
vn -0.9856 -0.1259 0.1128
vn 0.9996 0.0262 0.0133
vn -0.0323 0.6261 0.7791
vn 0.0056 -0.9030 0.4297
vn 0.1033 0.3172 -0.9427
vn 0.3739 -0.8004 0.4686
vn -0.4920 0.8700 0.0310
vn -0.8681 -0.4905 -0.0763
vn -0.8836 0.4681 -0.0065
vn -0.8856 0.4644 -0.0054
vn -0.8836 0.4681 -0.0071
vn -0.4319 -0.8970 -0.0936
vn -0.8843 0.4659 0.0299
vn -0.8843 0.4659 0.0302
vn -0.3399 -0.9356 -0.0950
vn -0.3848 0.9209 0.0619
vn -0.8688 -0.4925 -0.0516
vn -0.8688 -0.4924 -0.0519
vn -0.8834 0.4685 -0.0069
vn -0.3224 -0.9390 -0.1195
vn -0.3644 0.9305 0.0363
vn -0.8679 -0.4887 -0.0892
vn 0.4671 0.0364 0.8834
vn 0.3578 0.4792 0.8014
vn -0.0530 0.9927 -0.1084
vn -0.1324 0.9874 -0.0869
vn -0.0787 0.9855 -0.1500
vn -0.0786 0.9856 -0.1495
vn -0.0693 0.9870 -0.1452
vn -0.2633 0.9639 0.0395
vn -0.1313 0.9648 -0.2278
vn -0.2454 0.9563 -0.1593
vn -0.0689 0.9870 -0.1454
vn -0.3501 0.9362 -0.0297
vn 0.4070 0.4526 0.7934
vn -0.1376 0.9888 -0.0572
vn -0.1786 0.9806 -0.0801
vn -0.3042 0.5750 -0.7595
vn -0.8621 0.2729 0.4269
vn -0.9996 -0.0213 0.0188
vn -0.9953 -0.0963 0.0135
vn 0.1711 0.6312 0.7565
vn -0.2463 -0.4206 -0.8732
vn -0.2871 -0.0663 -0.9556
vn 0.1890 0.6308 0.7525
vn -0.9987 -0.0271 0.0432
vn -0.2571 -0.2161 -0.9419
vn 0.0590 0.9823 0.1780
vn -0.3992 -0.9116 -0.0980
vn -0.8876 0.4606 -0.0037
vn -0.7564 -0.6417 -0.1268
vn -0.4539 0.8903 0.0361
vn -0.8688 -0.4933 -0.0423
vn -0.4812 0.8754 0.0448
vn -0.4227 -0.9032 -0.0753
vn -0.8843 0.4663 0.0234
vn -0.4445 -0.8927 -0.0744
vn -0.5066 0.8610 0.0440
vn -0.8688 -0.4929 -0.0468
vn -0.4534 0.8901 0.0456
vn -0.3988 -0.9139 -0.0761
vn -0.8843 0.4661 0.0265
vn -0.4217 0.9048 0.0596
vn -0.3715 -0.9238 -0.0927
vn -0.3625 0.7509 -0.5521
vn -0.4366 0.8996 0.0074
vn -0.3936 0.8418 -0.3693
vn 0.0006 -0.0423 -0.9991
vn -0.3339 0.9418 -0.0388
vn -0.0034 0.6019 -0.7986
vn -0.5995 0.4441 0.6659
vn -0.4184 0.9082 -0.0108
vn -0.9580 0.1102 -0.2646
vn -0.9483 0.0401 -0.3150
vn -0.2779 0.9342 -0.2237
vn -0.5795 0.0961 -0.8093
vn -0.5790 -0.0589 -0.8132
vn -0.9461 -0.1567 -0.2836
vn -0.0614 0.9960 0.0642
vn 0.9047 -0.2250 -0.3617
vn 0.2763 0.9601 -0.0442
vn 0.2686 0.9626 -0.0355
vn 0.2692 0.9624 -0.0357
vn 0.5404 0.6652 -0.5152
vn 0.0757 0.9971 -0.0047
vn 0.6815 0.7267 -0.0861
vn 0.5834 0.6706 -0.4582
vn 0.8062 0.5730 -0.1473
vn 0.5248 -0.4948 0.6926
vn 0.0667 0.9876 0.1423
vn 0.0909 0.9941 0.0597
vn 0.4593 -0.2710 0.8459
vn 0.5812 -0.5240 0.6226
vn 0.2470 0.9464 -0.2079
vn -0.7663 0.5799 -0.2766
vn 0.2731 0.9551 -0.1148
vn 0.1414 -0.1263 -0.9819
vn 0.6644 0.5597 -0.4953
vn 0.3937 0.8664 -0.3071
vn 0.8356 0.5425 -0.0866
vn 0.3634 0.9316 0.0001
vn 0.4292 0.5262 -0.7341
vn 0.3107 0.9493 -0.0486
vn 0.8702 -0.1053 0.4813
vn 0.2392 0.9207 -0.3085
vn 0.5662 -0.2130 -0.7962
vn 0.5043 -0.1668 -0.8473
vn 0.2637 0.9639 -0.0369
vn 0.2433 0.9296 -0.2769
vn 0.4224 0.6450 -0.6368
vn -0.2624 -0.0930 -0.9605
vn 0.0587 0.2829 -0.9573
vn 0.5612 0.6173 -0.5514
vn 0.9444 0.3094 0.1111
vn 0.8532 -0.1336 -0.5042
vn 0.4030 0.6644 -0.6294
vn 0.6268 -0.4823 0.6120
vn 0.9736 0.2139 0.0794
vn 0.7749 -0.0847 0.6264
vn -0.2068 0.1447 -0.9676
vn 0.3755 -0.4522 -0.8091
vn 0.9519 0.1411 -0.2719
vn -0.9999 0.0159 -0.0018
vn -0.9999 0.0152 0.0006
vn -0.9999 0.0152 0.0004
vn -0.0512 0.5172 0.8544
vn 0.1202 0.9887 -0.0899
vn 0.1190 0.9889 -0.0890
vn 0.1196 0.9888 -0.0895
vn 0.9885 -0.1359 0.0670
vn 0.9874 -0.1138 0.1097
vn -0.9999 0.0166 -0.0040
vn -0.9986 -0.0517 -0.0048
vn -0.9923 -0.1202 0.0298
vn 0.9811 0.1178 0.1535
vn 0.0720 0.9461 0.3156
vn 0.9878 0.1452 0.0563
vn -0.9976 -0.0689 0.0010
vn 0.0065 -0.1345 0.9909
vn 0.0061 -0.1192 0.9928
vn 0.9858 -0.1249 0.1124
vn -0.9996 0.0237 0.0146
vn 0.0308 0.6262 0.7791
vn -0.0037 -0.9028 0.4300
vn -0.1022 0.3148 -0.9436
vn -0.3572 -0.7708 0.5275
vn 0.4920 0.8700 0.0310
vn 0.8681 -0.4905 -0.0763
vn 0.8837 0.4681 -0.0065
vn 0.8836 0.4681 -0.0071
vn 0.8858 0.4641 -0.0054
vn 0.4319 -0.8970 -0.0936
vn 0.8843 0.4659 0.0299
vn 0.8843 0.4659 0.0302
vn 0.3399 -0.9356 -0.0950
vn 0.3848 0.9209 0.0619
vn 0.8688 -0.4925 -0.0516
vn 0.8688 -0.4924 -0.0519
vn 0.8834 0.4686 -0.0069
vn 0.3224 -0.9390 -0.1195
vn 0.3644 0.9305 0.0363
vn 0.8679 -0.4887 -0.0892
vn -0.4670 0.0343 0.8836
vn -0.3604 0.4773 0.8014
vn 0.0771 0.9942 -0.0748
vn 0.1214 0.9884 -0.0909
vn 0.0718 0.9849 -0.1573
vn 0.2068 0.9783 0.0151
vn 0.1281 0.9654 -0.2269
vn 0.2438 0.9561 -0.1627
vn 0.0618 0.9885 -0.1383
vn 0.2773 0.9597 -0.0455
vn -0.4089 0.4500 0.7939
vn 0.1484 0.9872 -0.0589
vn 0.1511 0.9851 -0.0823
vn 0.2881 0.5732 -0.7671
vn 0.8576 0.2890 0.4255
vn 0.9996 -0.0213 0.0188
vn 0.9953 -0.0963 0.0137
vn -0.1704 0.6315 0.7564
vn 0.2398 -0.4202 -0.8752
vn 0.2839 -0.0658 -0.9566
vn -0.1881 0.6309 0.7527
vn 0.9987 -0.0271 0.0432
vn 0.2555 -0.2158 -0.9424
vn -0.0585 0.9823 0.1779
vn 0.3992 -0.9116 -0.0980
vn 0.8879 0.4601 -0.0036
vn 0.7556 -0.6425 -0.1271
vn 0.4539 0.8903 0.0361
vn 0.8688 -0.4933 -0.0423
vn 0.4812 0.8754 0.0448
vn 0.4227 -0.9031 -0.0753
vn 0.8843 0.4663 0.0234
vn 0.4445 -0.8927 -0.0744
vn 0.5066 0.8610 0.0440
vn 0.8688 -0.4929 -0.0468
vn 0.4534 0.8901 0.0456
vn 0.3988 -0.9139 -0.0761
vn 0.8843 0.4661 0.0265
vn 0.4217 0.9048 0.0596
vn 0.3714 -0.9238 -0.0927
vn 0.5251 0.6244 -0.5783
vn 0.6651 0.7426 -0.0788
vn 0.5854 0.6965 -0.4151
vn -0.0426 -0.0403 -0.9983
vn 0.3328 0.9413 -0.0557
vn -0.0158 0.6054 -0.7958
vn 0.5936 0.4681 0.6546
vn 0.7030 0.7083 -0.0640
vn 0.9580 0.1102 -0.2647
vn 0.9485 0.0417 -0.3140
vn 0.2788 0.9334 -0.2259
vn 0.5795 0.0959 -0.8093
vn 0.5790 -0.0592 -0.8132
vn 0.9460 -0.1569 -0.2836
vn 0.0606 0.9961 0.0648
vn -0.9047 -0.2251 -0.3616
vn 0.1190 -0.9874 -0.1044
vn 0.6057 -0.7954 0.0210
vn 0.2276 -0.9711 0.0720
vn 0.0686 -0.9975 0.0174
vn -0.1188 -0.9761 0.1819
vn -0.1257 -0.9838 -0.1281
vn -0.1271 -0.9889 0.0765
vn 0.3801 -0.9059 -0.1867
vn 0.2496 -0.9514 -0.1805
vn 0.4119 -0.8693 0.2733
vn 0.6658 -0.7364 -0.1201
vn -0.2102 -0.9207 0.3287
vn -0.3266 -0.9084 0.2611
vn -0.0645 -0.9733 -0.2201
vn -0.0151 -0.9703 -0.2413
vn -0.0023 -0.9985 -0.0539
vn 0.0039 -0.9987 -0.0516
vn 0.5249 0.1045 0.8447
vn -0.0540 -0.9681 0.2446
vn 0.0253 -0.9994 -0.0240
vn 0.0090 -0.9959 0.0896
vn -0.0382 -0.9806 -0.1924
vn -0.1256 -0.9583 -0.2565
vn -0.1773 -0.9804 -0.0864
vn 0.0390 -0.9936 -0.1063
vn -0.2331 -0.9696 0.0745
vn -0.1411 -0.8939 0.4255
vn -0.1256 -0.9904 -0.0581
vn -0.1142 -0.9930 0.0304
vn 0.1779 -0.8949 0.4092
vn 0.0492 -0.8584 0.5106
vn 0.0269 0.9694 0.2442
vn 0.9959 0.0573 0.0699
vn 0.1141 0.0631 0.9915
vn 0.9892 -0.0563 0.1355
vn 0.0228 -0.9814 0.1907
vn 0.0099 0.9928 -0.1196
vn 0.0403 -0.9807 0.1912
vn 0.1732 0.9711 0.1641
vn 0.9968 -0.0463 0.0655
vn 0.3543 -0.9284 -0.1124
vn 0.2614 -0.9412 -0.2139
vn 0.0055 -0.9141 0.4054
vn 0.0319 -0.9324 0.3600
vn 0.2449 -0.9693 0.0218
vn 0.0027 0.0641 0.9979
vn 0.0018 0.0638 0.9980
vn 0.0031 0.0663 0.9978
vn 0.0032 0.0652 0.9979
vn 0.0036 0.0645 0.9979
vn 0.0033 0.0641 0.9979
vn -0.0001 0.0685 0.9977
vn -0.0004 0.0657 0.9978
vn -0.0007 0.0629 0.9980
vn 0.9915 0.0501 0.1198
vn 0.0283 0.9918 -0.1250
vn -0.0006 -0.9947 -0.1031
vn -0.0012 -0.9948 -0.1021
vn 0.0659 -0.9954 -0.0698
vn -0.0153 -0.9960 -0.0881
vn -0.6896 -0.7229 0.0430
vn -0.5387 -0.8342 0.1181
vn 0.0295 -0.9995 0.0120
vn 0.1732 -0.9671 0.1862
vn 0.1300 -0.9829 -0.1307
vn 0.1146 -0.9922 0.0487
vn -0.6307 -0.7644 -0.1337
vn -0.3178 -0.9414 -0.1135
vn -0.5610 -0.7970 0.2236
vn -0.7576 -0.6391 -0.1325
vn 0.2261 -0.9160 0.3314
vn 0.3434 -0.9038 0.2555
vn 0.0640 -0.9760 -0.2082
vn 0.0142 -0.9708 -0.2395
vn -0.0085 -0.9984 -0.0563
vn -0.5247 0.1038 0.8449
vn 0.0565 -0.9704 0.2348
vn -0.0201 -0.9995 -0.0236
vn -0.0058 -0.9959 0.0900
vn 0.0646 -0.9783 -0.1970
vn 0.1593 -0.9537 -0.2552
vn 0.1399 -0.9873 -0.0751
vn 0.0247 -0.9964 -0.0807
vn 0.2116 -0.9740 0.0805
vn 0.1320 -0.8937 0.4289
vn 0.0871 -0.9936 -0.0721
vn 0.1600 -0.9863 0.0398
vn -0.1810 -0.8933 0.4114
vn -0.0555 -0.8572 0.5119
vn -0.0199 0.9702 0.2417
vn -0.9963 0.0503 0.0702
vn -0.1139 0.0636 0.9915
vn -0.9882 -0.0659 0.1381
vn -0.0342 -0.9809 0.1916
vn -0.0022 0.9922 -0.1247
vn -0.0027 0.9922 -0.1248
vn -0.0123 0.9919 -0.1268
vn -0.0498 -0.9794 0.1956
vn -0.1703 0.9722 0.1604
vn -0.9964 -0.0524 0.0660
vn -0.6251 -0.7805 -0.0055
vn -0.3294 -0.9308 -0.1587
vn 0.0050 -0.9214 0.3887
vn -0.2964 -0.8501 0.4353
vn -0.2868 -0.9580 0.0022
vn -0.0010 0.0633 0.9980
vn -0.0027 0.0643 0.9979
vn -0.0026 0.0660 0.9978
vn -0.0006 0.0638 0.9980
vn -0.0015 0.0628 0.9980
vn -0.0030 0.0625 0.9980
vn -0.9916 0.0426 0.1220
vn -0.0127 0.9918 -0.1269
vn 0.0000 -0.9946 -0.1042
vn -0.0659 -0.9954 -0.0696
usemtl Top
s 1
f 1/1/1 2/2/1 3/3/1 4/4/1
f 5/5/2 6/6/2 7/7/2
f 8/8/3 2/2/3 9/9/3 10/10/3
f 11/11/4 12/12/4 13/13/4 14/14/4
f 5/5/5 15/15/5 6/6/5
f 16/16/6 12/17/7 15/18/8 5/19/8
f 17/20/9 18/21/9 19/22/9 20/23/9
f 21/24/10 22/25/10 23/26/10 24/27/10
f 10/10/11 9/9/11 25/28/11 26/29/11
f 20/23/12 19/22/12 27/30/12 28/31/12
f 16/16/13 17/32/13 13/33/13
f 4/4/14 3/3/14 29/34/14 30/35/14
f 31/36/15 32/37/15 33/38/15 34/39/15
f 30/35/16 29/34/16 35/40/16 36/41/16
f 37/42/17 38/43/17 39/44/17 40/45/17
f 41/46/18 42/47/18 43/48/18 44/49/18
f 45/50/19 46/51/19 4/4/19 30/35/19
f 13/33/20 12/17/7 16/16/6
f 46/51/21 11/11/21 1/1/21 4/4/21
f 26/52/22 25/53/22 47/54/22 48/55/22
f 14/14/23 49/56/23 50/57/23 51/58/23 52/59/23
f 28/60/24 27/61/24 53/62/24 54/63/24
f 36/41/25 35/40/25 55/64/25 43/65/25
f 56/66/26 57/67/26 39/44/26 38/43/26
f 42/68/27 58/69/27 57/67/27 56/66/27
f 44/70/28 59/71/28 60/72/28 61/73/28 62/74/28
f 43/65/29 55/64/29 44/70/29
f 43/65/30 42/75/30 56/76/30 36/41/30
f 63/77/31 32/78/31 64/79/31
f 32/78/32 31/80/32 65/81/32
f 36/41/33 56/76/33 38/82/33 30/35/33
f 50/83/34 28/60/34 66/84/34
f 67/85/35 58/86/35 42/47/35 41/46/35
f 45/50/36 30/35/36 38/82/36 37/87/36
f 68/88/37 18/89/37 17/32/37 16/16/37
f 22/90/38 54/63/38 69/91/38 23/92/38
f 13/33/39 17/32/39 20/93/39 49/94/39
f 70/95/40 5/96/40 7/97/40 71/98/40
f 68/99/41 16/100/41 5/96/41 70/95/41
f 72/101/42 41/46/42 44/49/42 62/102/42
f 73/103/43 24/104/44 74/105/45 75/106/45
f 76/107/46 77/108/46 78/109/46 79/110/46
f 21/24/47 80/111/48 22/25/49
f 69/91/50 81/112/50 82/113/50 83/114/50
f 54/63/51 53/62/51 81/112/51 69/91/51
f 84/115/52 21/116/52 24/104/44 73/103/43
f 85/117/53 84/115/53 73/103/53 86/118/53
f 87/119/54 75/106/54 88/120/54 89/121/54
f 90/122/55 83/114/55 91/123/55 92/124/55
f 24/27/56 23/26/56 90/125/56 74/126/56
f 23/92/57 69/91/57 83/114/57 90/122/57
f 86/118/58 73/103/58 75/106/58 87/119/58
f 91/127/59 93/128/59 89/129/59 88/130/59
f 92/131/60 91/127/60 88/130/60 94/132/60
f 83/114/61 82/113/61 93/133/61 91/123/61
f 75/106/62 74/105/62 94/134/62 88/120/62
f 74/135/63 90/136/63 92/131/63 94/132/63
f 82/137/64 87/138/64 89/139/64 93/140/64
f 64/79/65 95/141/65 63/77/65
f 65/142/66 31/143/66 96/144/66
f 97/145/67 98/146/67 99/147/67 100/148/67
f 101/149/68 102/150/68 103/151/68 104/152/68
f 102/150/69 97/153/70 100/154/71 103/151/71
f 105/155/72 101/156/72 104/157/72 106/158/72
f 107/159/73 108/160/73 109/161/74 110/162/74
f 111/163/75 112/164/75 113/165/75 114/166/75
f 108/167/76 115/168/76 116/169/76 109/170/76
f 112/171/77 107/159/77 110/162/78 113/172/78
f 110/162/79 109/161/79 117/173/79
f 114/166/80 113/165/80 117/174/80
f 109/170/81 116/169/81 117/174/81
f 113/172/82 110/162/82 117/173/82
f 84/175/83 85/176/83 118/177/83 119/178/83
f 21/179/84 84/175/84 119/178/84 120/180/84
f 3/3/85 2/2/85 8/8/85 121/181/85
f 77/182/86 47/183/86 80/111/48 21/24/47
f 35/40/87 29/34/88 122/184/89 123/185/87
f 25/28/90 9/9/90 52/59/90 51/58/90
f 55/64/91 35/40/91 123/185/91 124/186/91 125/187/91
f 44/70/92 55/64/92 125/187/92 59/71/92
f 29/34/88 3/3/93 121/181/93 122/184/89
f 9/9/94 2/2/94 1/1/94 52/59/94
f 77/108/95 21/179/95 120/180/95 78/109/95
f 48/188/96 47/183/96 77/182/96 76/189/96
f 80/111/97 66/190/97 22/25/97
f 80/191/98 47/54/98 25/53/98 51/192/98
f 66/84/99 28/60/99 54/63/99 22/90/99
f 126/193/100 127/194/100 128/195/100 129/196/100
f 59/197/101 125/198/101 127/194/101 126/193/101
f 125/199/102 124/200/102 130/201/102 127/202/102
f 60/203/103 59/204/103 126/205/103 131/206/103
f 131/206/104 126/205/104 129/207/104 132/208/104
f 127/202/105 130/201/105 133/209/105 128/210/105
f 129/196/106 128/195/106 134/211/106
f 132/208/107 129/207/107 134/212/107 135/213/107
f 128/214/108 133/215/108 135/216/108 134/217/108
f 95/218/109 64/219/109 101/156/109 105/155/109
f 32/37/110 65/220/110 97/153/70 102/150/69
f 64/221/111 32/37/111 102/150/111 101/149/111
f 65/142/112 96/144/112 98/146/112 97/145/112
f 136/222/113 137/223/113 138/224/113 139/225/113
f 140/226/114 141/227/114 142/228/114 143/229/114
f 144/230/115 136/231/115 139/232/115 145/233/115
f 137/223/116 140/234/116 143/235/116 138/224/116
f 103/151/116 100/154/116 140/234/116 137/223/116
f 106/158/117 104/157/117 136/231/117 144/230/117
f 100/148/118 99/147/118 141/227/118 140/226/118
f 104/152/113 103/151/113 137/223/113 136/222/113
f 139/225/113 138/224/113 146/236/119 147/237/119
f 143/229/120 142/228/120 148/238/120 149/239/120
f 145/233/121 139/232/121 147/240/121 150/241/121
f 138/224/116 143/235/116 149/242/122 146/236/122
f 147/237/119 146/236/119 107/159/77 112/171/77
f 149/239/123 148/238/123 115/168/123 108/167/123
f 150/241/124 147/240/124 112/164/124 111/163/124
f 146/236/122 149/242/122 108/160/73 107/159/73
f 6/6/125 45/50/125 37/87/125 7/7/125
f 15/15/126 12/12/126 11/11/126 46/51/126
f 6/6/127 15/15/127 46/51/127 45/50/127
f 7/97/128 37/42/128 40/45/128 71/98/128
f 1/1/129 11/11/129 14/14/129 52/59/129
f 51/192/130 50/243/130 66/244/130 80/191/130
f 49/245/131 20/23/131 28/31/131 50/243/131
f 49/56/132 14/14/132 13/13/132
f 151/246/133 72/101/133 152/247/133 153/248/133
f 67/85/134 41/46/134 72/101/134 151/246/134
f 62/74/135 61/73/135 96/144/135 31/143/135
f 153/249/136 152/250/136 33/251/136 154/252/136
f 33/251/137 152/250/137 155/253/137 34/254/137
f 72/101/138 62/102/138 155/255/138 152/247/138
f 62/74/139 31/143/139 34/256/139 155/257/139
f 32/37/140 63/258/140 154/259/140 33/38/140
f 156/260/141 157/261/142 158/262/142 159/263/143
f 160/264/144 161/265/144 162/266/144
f 8/8/145 10/10/145 163/267/145 159/263/145
f 164/268/146 165/269/146 166/270/146 167/271/146
f 160/264/147 162/266/147 168/272/147
f 169/273/148 160/274/148 168/275/148 167/276/148
f 170/277/149 171/278/149 172/279/149 173/280/149
f 174/281/150 175/282/150 176/283/150 177/284/150
f 10/10/151 26/29/151 178/285/151 163/267/151
f 171/278/152 179/286/152 180/287/152 172/279/152
f 169/288/153 166/289/153 170/277/153
f 157/261/154 181/290/154 182/291/154 158/262/154
f 183/292/155 184/293/155 185/294/155 186/295/155
f 181/290/156 187/296/156 188/297/156 182/291/156
f 189/298/157 190/299/157 191/300/157 192/301/157
f 193/302/158 194/303/158 195/304/158 196/305/158
f 197/306/159 181/290/159 157/261/159 198/307/159
f 166/308/160 169/273/160 167/276/160
f 198/307/161 157/261/161 156/260/161 164/268/161
f 26/52/162 48/55/162 199/309/162 178/310/162
f 165/269/163 200/311/163 201/312/163 202/313/163 203/314/163
f 179/315/164 204/316/164 205/317/164 180/318/164
f 187/296/165 195/319/165 206/320/165 188/297/165
f 207/321/166 192/301/166 191/300/166 208/322/166
f 196/323/167 207/321/167 208/322/167 209/324/167
f 194/325/168 210/326/168 61/73/168 60/72/168 211/327/168
f 195/319/169 194/325/169 206/320/169
f 195/319/170 187/296/170 207/328/170 196/329/170
f 212/330/171 213/331/171 186/332/171
f 186/332/172 214/333/172 183/334/172
f 187/296/173 181/290/173 192/335/173 207/328/173
f 202/336/174 215/337/174 179/315/174
f 216/338/175 193/302/175 196/305/175 209/339/175
f 197/306/176 189/340/176 192/335/176 181/290/176
f 217/341/177 169/273/177 170/342/177 173/343/177
f 177/344/178 176/345/178 218/346/178 204/316/178
f 166/308/179 203/347/179 171/348/179 170/342/179
f 219/349/180 220/350/180 161/351/180 160/352/180
f 217/353/181 219/349/181 160/352/181 169/288/181
f 221/354/182 210/355/182 194/303/182 193/302/182
f 222/356/183 223/357/184 224/358/184 175/359/185
f 76/107/186 79/110/186 225/360/186 226/361/186
f 174/281/187 177/284/188 227/362/189
f 218/346/190 228/363/190 229/364/190 230/365/190
f 204/316/191 218/346/191 230/365/191 205/317/191
f 231/366/192 222/356/183 175/359/185 174/367/192
f 232/368/193 233/369/193 222/356/193 231/366/193
f 234/370/194 235/371/194 236/372/194 223/357/194
f 237/373/195 238/374/195 239/375/195 228/363/195
f 175/282/196 224/376/196 237/377/196 176/283/196
f 176/345/197 237/373/197 228/363/197 218/346/197
f 233/369/198 234/370/198 223/357/198 222/356/198
f 239/378/199 236/379/199 235/380/199 240/381/199
f 238/382/200 241/383/200 236/379/200 239/378/200
f 228/363/201 239/375/201 240/384/201 229/364/201
f 223/357/202 236/372/202 241/385/202 224/358/202
f 224/386/203 241/383/203 238/382/203 237/387/203
f 229/388/204 240/389/204 235/390/204 234/391/204
f 213/331/205 212/330/205 95/141/205
f 214/392/206 96/144/206 183/393/206
f 242/394/207 243/395/207 99/147/207 98/146/207
f 244/396/208 245/397/208 246/398/208 247/399/208
f 247/399/209 246/398/210 243/400/210 242/401/211
f 105/155/212 106/158/212 245/402/212 244/403/212
f 248/404/213 249/405/214 250/406/214 251/407/213
f 111/163/215 114/166/215 252/408/215 253/409/215
f 251/410/216 250/411/216 116/169/216 115/168/216
f 253/412/217 252/413/218 249/405/218 248/404/217
f 249/405/219 117/173/219 250/406/219
f 114/166/220 117/174/220 252/408/220
f 250/411/221 117/174/221 116/169/221
f 252/413/222 117/173/222 249/405/222
f 231/414/223 254/415/223 255/416/223 232/417/223
f 174/418/224 256/419/224 254/415/224 231/414/224
f 158/262/225 121/181/225 8/8/225 159/263/225
f 226/420/226 174/281/187 227/362/189 199/421/226
f 188/297/227 123/185/227 122/184/227 182/291/227
f 178/285/228 201/312/228 200/311/228 163/267/228
f 206/320/229 257/422/229 124/186/229 123/185/229 188/297/229
f 194/325/230 211/327/230 257/422/230 206/320/230
f 182/291/231 122/184/231 121/181/231 158/262/231
f 163/267/232 200/311/232 156/260/141 159/263/143
f 226/361/233 225/360/233 256/419/233 174/418/233
f 48/188/234 76/189/234 226/420/234 199/421/234
f 227/362/235 177/284/235 215/423/235
f 227/424/236 201/425/236 178/310/236 199/309/236
f 215/337/237 177/344/237 204/316/237 179/315/237
f 258/426/238 259/427/238 260/428/238 261/429/238
f 211/430/239 258/426/239 261/429/239 257/431/239
f 257/432/240 261/433/240 130/201/240 124/200/240
f 60/203/241 131/206/241 258/434/241 211/435/241
f 131/206/242 132/208/242 259/436/242 258/434/242
f 261/433/243 260/437/243 133/209/243 130/201/243
f 259/427/244 262/438/244 260/428/244
f 132/208/245 135/213/245 262/439/245 259/436/245
f 260/440/246 262/441/246 135/216/246 133/215/246
f 95/218/247 105/155/247 244/403/247 213/442/247
f 186/295/248 247/399/209 242/401/211 214/443/248
f 213/444/249 244/396/249 247/399/249 186/295/249
f 214/392/250 242/394/250 98/146/250 96/144/250
f 263/445/251 264/446/251 265/447/251 266/448/251
f 267/449/252 268/450/252 142/228/252 141/227/252
f 144/230/253 145/233/253 264/451/253 263/452/253
f 266/448/254 265/447/254 268/453/254 267/454/254
f 246/398/254 266/448/254 267/454/254 243/400/254
f 106/158/255 144/230/255 263/452/255 245/402/255
f 243/395/256 267/449/256 141/227/256 99/147/256
f 245/397/251 263/445/251 266/448/251 246/398/251
f 264/446/251 269/455/257 270/456/257 265/447/251
f 268/450/258 271/457/258 148/238/258 142/228/258
f 145/233/259 150/241/259 269/458/259 264/451/259
f 265/447/254 270/456/260 271/459/260 268/453/254
f 269/455/257 253/412/217 248/404/217 270/456/257
f 271/457/261 251/410/261 115/168/261 148/238/261
f 150/241/262 111/163/262 253/409/262 269/458/262
f 270/456/260 248/404/213 251/407/213 271/459/260
f 162/266/263 161/265/263 189/340/263 197/306/263
f 168/272/264 198/307/264 164/268/264 167/271/264
f 162/266/265 197/306/265 198/307/265 168/272/265
f 161/351/266 220/350/266 190/299/266 189/298/266
f 156/260/267 200/311/267 165/269/267 164/268/267
f 201/425/268 227/424/268 215/460/268 202/461/268
f 203/462/269 202/461/269 179/286/269 171/278/269
f 203/314/270 166/270/270 165/269/270
f 272/463/271 273/464/271 274/465/271 221/354/271
f 216/338/272 272/463/272 221/354/272 193/302/272
f 210/326/273 183/393/273 96/144/273 61/73/273
f 273/466/274 275/467/274 185/468/274 274/469/274
f 185/468/275 184/470/275 276/471/275 274/469/275
f 221/354/276 274/465/276 276/472/276 210/355/276
f 210/326/277 276/473/277 184/474/277 183/393/277
f 186/295/278 185/294/278 275/475/278 212/476/278
usemtl Bottom
f 277/477/279 278/478/279 279/479/279 280/480/279
f 68/481/280 70/482/280 281/483/280 282/484/280
f 283/485/281 284/486/281 18/487/281 282/484/281
f 277/477/282 280/480/282 285/488/282 286/489/282
f 286/489/283 285/488/283 287/490/283 288/491/283
f 289/492/284 290/493/284 291/494/284 292/495/284
f 293/496/285 279/479/285 290/493/285 289/492/285
f 294/497/286 281/483/286 71/498/286 40/499/286
f 283/485/287 294/497/287 278/478/287 277/477/287
f 282/484/288 18/487/288 68/481/288
f 281/483/289 70/482/289 71/498/289
f 288/491/290 287/490/290 295/500/290 85/501/290
f 27/502/291 288/491/291 53/503/291
f 292/495/292 291/494/292 296/504/292 297/505/292
f 298/506/293 151/507/293 63/508/293 95/218/293
f 297/505/294 296/504/295 67/509/295 299/510/294
f 85/176/296 295/511/296 300/512/296 118/177/296
f 85/501/297 53/503/297 288/491/297
f 53/503/298 85/501/298 86/513/298 81/514/298
f 81/514/299 86/513/299 87/138/299 82/137/299
f 291/494/300 290/493/300 39/515/300 57/516/300
f 296/504/301 291/494/301 57/516/301 58/517/301
f 285/488/302 280/480/302 301/518/302 302/519/302
f 290/493/303 279/479/303 278/478/303 39/515/303
f 287/490/304 285/488/304 302/519/304 303/520/304
f 295/500/305 287/490/305 303/520/305 304/521/305
f 280/480/306 279/479/306 293/496/306 301/518/306
f 67/509/307 296/504/307 58/517/307
f 78/522/308 120/523/308 305/524/308 306/525/308
f 79/526/309 78/522/309 306/525/309 307/527/309
f 300/528/310 308/529/310 309/530/310 310/531/310
f 120/532/311 119/533/311 311/534/311 305/535/311
f 295/511/312 304/536/312 308/537/312 300/512/312
f 311/534/313 312/538/313 313/539/313 314/540/313
f 307/527/314 306/525/314 315/541/314 316/542/314
f 312/543/315 310/531/315 317/544/315 313/545/315
f 306/525/316 305/524/316 318/546/316 315/541/316
f 118/547/317 300/528/317 310/531/317 312/543/317
f 119/533/318 118/548/318 312/538/318 311/534/318
f 282/484/319 281/483/319 294/497/319 283/485/319
f 278/478/320 294/497/320 40/499/320 39/515/320
f 19/549/321 284/486/321 286/489/321 288/491/321 27/502/321
f 18/487/322 284/486/322 19/549/322
f 277/477/323 286/489/323 284/486/323 283/485/323
f 314/550/324 313/551/325 317/552/326 319/553/327
f 318/554/328 314/550/324 319/553/327 315/555/329
f 319/553/327 317/552/326 320/556/330 321/557/331
f 315/555/329 319/553/327 321/557/331 316/558/332
f 305/535/333 311/534/333 314/540/333 318/559/333
f 310/531/334 309/530/334 320/560/334 317/544/334
f 299/510/335 67/509/336 151/507/336 298/506/335
f 63/508/337 151/507/337 153/561/337 154/562/337
f 322/563/338 323/564/338 324/565/338 325/566/338
f 217/567/339 326/568/339 327/569/339 219/570/339
f 328/571/340 326/568/340 173/572/340 329/573/340
f 322/563/341 330/574/341 331/575/341 323/564/341
f 330/574/342 332/576/342 333/577/342 331/575/342
f 289/492/343 292/495/343 334/578/343 335/579/343
f 293/496/344 289/492/344 335/579/344 324/565/344
f 336/580/345 190/581/345 220/582/345 327/569/345
f 328/571/346 322/563/346 325/566/346 336/580/346
f 326/568/347 217/567/347 173/572/347
f 327/583/348 220/584/348 219/585/348
f 332/576/349 232/586/349 337/587/349 333/577/349
f 180/588/350 205/589/350 332/576/350
f 292/495/351 297/505/351 338/590/351 334/578/351
f 298/506/352 95/218/352 212/591/352 272/592/352
f 297/505/294 299/510/294 216/593/353 338/590/353
f 232/417/354 255/416/354 339/594/354 337/595/354
f 232/586/355 332/576/355 205/589/355
f 205/589/356 230/596/356 233/597/356 232/586/356
f 230/596/357 229/388/357 234/391/357 233/597/357
f 334/578/358 208/598/358 191/599/358 335/579/358
f 338/590/359 209/600/359 208/598/359 334/578/359
f 331/575/360 302/519/360 301/518/360 323/564/360
f 335/579/361 191/599/361 325/566/361 324/565/361
f 333/577/362 303/520/362 302/519/362 331/575/362
f 337/587/363 304/521/363 303/520/363 333/577/363
f 323/564/364 301/518/364 293/496/364 324/565/364
f 216/593/365 209/600/365 338/590/365
f 225/601/366 340/602/366 341/603/366 256/604/366
f 79/526/367 307/527/367 340/602/367 225/601/367
f 339/605/368 342/606/368 309/530/368 308/529/368
f 256/607/369 341/608/369 343/609/369 254/610/369
f 337/595/370 339/594/370 308/537/370 304/536/370
f 343/609/371 344/611/371 345/612/371 346/613/371
f 307/527/372 316/542/372 347/614/372 340/602/372
f 346/615/373 345/616/373 348/617/374 342/606/375
f 340/602/376 347/614/376 349/618/376 341/603/376
f 255/619/377 346/615/377 342/606/377 339/605/377
f 254/610/378 343/609/378 346/613/378 255/620/378
f 326/568/379 328/571/379 336/580/379 327/569/379
f 325/566/380 191/599/380 190/581/380 336/580/380
f 172/621/381 180/588/381 332/576/381 330/574/381 329/573/381
f 173/572/382 172/621/382 329/573/382
f 322/563/383 328/571/383 329/573/383 330/574/383
f 344/622/384 350/623/385 348/624/386 345/625/387
f 349/626/388 347/627/389 350/623/385 344/622/384
f 350/623/385 321/557/331 320/556/330 348/624/386
f 347/627/389 316/558/332 321/557/331 350/623/385
f 341/608/390 349/628/390 344/611/390 343/609/390
f 342/606/375 348/617/374 320/560/391 309/530/391
f 299/510/335 298/506/335 272/592/392 216/593/392
f 212/591/393 275/629/393 273/630/393 272/592/393
l 353 354
l 351 352
